Date;Open;High;Low;Close;Adj Close;Volume
2015-02-12;220.02200299999998;222.91572599999998;218.05494700000003;219.609848;219.609848;0.0
2015-02-13;223.26413;242.483017;221.24450699999997;236.499985;236.499985;0.0
2015-02-16;236.999954;260.010406;229.20008900000002;234.390198;234.390198;0.0
2015-02-17;236.078613;248.38549799999998;232.80989100000002;245.36024500000002;245.36024500000002;0.0
2015-02-18;244.977966;246.21022000000002;232.45974700000002;237.440002;237.440002;0.0
2015-02-19;237.586121;244.798035;235.59013399999998;241.20971699999998;241.20971699999998;0.0
2015-02-20;241.77951000000002;248.810059;239.41027799999998;244.89996299999999;244.89996299999999;0.0
2015-02-23;245.480087;248.200531;232.049789;238.96977200000003;238.96977200000003;0.0
2015-02-24;239.578339;241.95498700000002;235.801117;239.550217;239.550217;0.0
2015-02-25;240.096054;241.31274399999998;235.99989300000001;237.97003199999997;237.97003199999997;0.0
2015-02-26;238.435867;238.834488;234.160217;236.83999599999999;236.83999599999999;0.0
2015-02-27;237.586121;259.403381;236.096802;252.11015299999997;252.11015299999997;0.0
2015-03-02;252.779938;280.112061;245.61996499999998;275.92981000000003;275.92981000000003;0.0
2015-03-03;276.701721;289.017334;266.27966299999997;279.99987799999997;279.99987799999997;0.0
2015-03-04;283.286102;287.10882599999997;266.510315;270.230103;270.230103;0.0
2015-03-05;273.672699;281.056763;262.20016499999997;273.019653;273.019653;0.0
2015-03-06;276.93161000000003;279.64205899999996;269.010284;273.972595;273.972595;0.0
2015-03-09;275.330414;294.81131;274.170166;287.159943;287.159943;0.0
2015-03-10;290.275757;299.401184;285.119598;289.99963399999996;289.99963399999996;0.0
2015-03-11;293.513336;298.151459;288.000183;296.639954;296.639954;0.0
2015-03-12;296.912109;298.596619;290.789825;295.429688;295.429688;0.0
2015-03-13;296.120819;296.471985;284.449707;284.819946;284.819946;0.0
2015-03-16;283.22033700000003;295.42099;280.470306;289.269836;289.269836;0.0
2015-03-17;292.483185;294.11764500000004;281.89977999999996;284.010223;284.010223;0.0
2015-03-18;286.944061;287.026398;249.850082;257.969971;257.969971;0.0
2015-03-19;258.197784;265.81604;249.000275;263.22024500000003;263.22024500000003;0.0
2015-03-20;;;;;;
2015-03-23;261.369568;267.809326;259.47000099999997;265.939758;265.939758;0.0
2015-03-24;249.937515;250.062515;244.310028;245.00015299999998;245.00015299999998;0.0
2015-03-25;247.157684;247.67985499999998;246.360031;246.939804;246.939804;0.0
2015-03-26;249.21993999999998;251.004013;249.100113;249.22988900000001;249.22988900000001;0.0
2015-03-27;249.21993999999998;251.319443;245.120255;248.19993599999998;248.19993599999998;0.0
2015-03-29;253.678329;253.678329;246.19990499999997;247.950073;247.950073;0.0
2015-03-30;246.669952;246.669952;243.300125;243.850098;243.850098;0.0
2015-03-31;246.913574;248.01586899999998;245.650146;246.719849;246.719849;0.0
2015-04-01;253.22866800000003;254.5177;251.12001;253.27996800000003;253.27996800000003;0.0
2015-04-02;255.102036;255.885361;252.799759;254.17999300000002;254.17999300000002;0.0
2015-04-05;254.77708399999997;258.131134;252.823807;255.470245;255.470245;0.0
2015-04-06;255.493103;256.08194;253.509842;253.720169;253.720169;0.0
2015-04-07;247.157684;247.52475;244.05006400000002;244.79985;244.79985;0.0
2015-04-08;243.84297200000003;244.85798599999998;242.450104;243.429825;243.429825;0.0
2015-04-09;235.62675499999997;237.07917799999998;233.480118;235.99989300000001;235.99989300000001;0.0
2015-04-12;235.62675499999997;239.420029;233.030167;236.189972;236.189972;0.0
2015-04-13;218.627029;221.53302000000002;213.230087;216.22978199999997;216.22978199999997;0.0
2015-04-14;221.729492;224.164978;219.560181;222.299774;222.299774;0.0
2015-04-15;229.990799;230.733734;226.54007000000001;227.48986800000003;227.48986800000003;0.0
2015-04-16;222.689865;224.215256;222.400146;222.629883;222.629883;0.0
2015-04-19;223.540115;226.03977999999998;222.82261699999998;224.300232;224.300232;0.0
2015-04-20;232.46900899999997;235.97984300000002;232.46900899999997;235.97984300000002;235.97984300000002;0.0
2015-04-21;235.017624;235.12814300000002;232.00994900000003;233.63011200000003;233.63011200000003;0.0
2015-04-22;235.183456;236.18327299999999;234.415085;235.97984300000002;235.97984300000002;0.0
2015-04-23;231.303802;232.88308700000002;230.351898;231.15988199999998;231.15988199999998;0.0
2015-04-26;227.718292;232.12481699999998;222.55259700000002;227.27015699999998;227.27015699999998;0.0
2015-04-27;224.97187799999998;225.93763700000002;224.080093;225.220154;225.220154;0.0
2015-04-28;226.17013500000002;226.86024500000002;225.09999100000002;225.09999100000002;225.09999100000002;0.0
2015-04-29;237.07917799999998;237.981918;235.550171;236.379791;236.379791;0.0
2015-04-30;235.349487;235.960358;230.509827;230.969818;230.969818;0.0
2015-05-03;234.00024399999998;240.32685899999998;233.649765;238.12019300000003;238.12019300000003;0.0
2015-05-04;235.960358;237.24791000000002;234.36988799999997;235.900238;235.900238;0.0
2015-05-05;231.213867;231.53508;227.789902;228.309982;228.309982;0.0
2015-05-06;238.095245;238.72045899999998;235.449799;237.160141;237.160141;0.0
2015-05-07;245.158127;245.82106000000002;243.129745;243.24983199999997;243.24983199999997;0.0
2015-05-10;242.550079;244.798035;239.999802;240.94990499999997;240.94990499999997;0.0
2015-05-11;242.600662;243.07243300000002;241.00972000000002;241.03006000000002;241.03006000000002;0.0
2015-05-12;242.600662;244.37927200000001;240.44010899999998;244.021469;244.021469;0.0
2015-05-13;236.68022200000001;237.642593;236.12027;237.15002400000003;237.15002400000003;0.0
2015-05-14;237.47328199999998;237.981918;235.87019300000003;237.370117;237.370117;0.0
2015-05-17;236.686401;237.07917799999998;231.72982799999997;233.18013;233.18013;0.0
2015-05-18;232.88308700000002;233.15458700000002;231.059998;231.40005499999998;231.40005499999998;0.0
2015-05-19;234.19204700000003;234.63163799999998;233.010056;234.269943;234.269943;0.0
2015-05-20;235.960358;236.406616;234.90995800000002;236.127518;236.127518;0.0
2015-05-21;240.211395;241.370987;237.869843;240.442429;240.442429;0.0
2015-05-24;238.200165;239.865677;235.34008799999998;235.72007799999997;235.72007799999997;0.0
2015-05-25;236.149826;237.925293;235.07009900000003;235.60012799999998;235.60012799999998;0.0
2015-05-26;237.47328199999998;238.151932;234.90004;235.31016499999998;235.31016499999998;0.0
2015-05-27;237.642593;237.64700299999998;235.99989300000001;236.45971699999998;236.45971699999998;0.0
2015-05-28;237.02298;237.24791000000002;235.080063;236.039993;236.039993;0.0
2015-05-31;232.396011;233.263367;221.38000499999998;223.720154;223.720154;0.0
2015-06-01;225.58087200000003;225.887299;224.62017799999998;224.87980699999997;224.87980699999997;0.0
2015-06-02;226.03977999999998;226.50057999999999;224.449753;225.38003500000002;225.38003500000002;0.0
2015-06-03;223.920044;223.920044;222.070221;222.98980699999998;222.98980699999998;0.0
2015-06-04;224.810028;225.022507;224.159973;225.022507;225.022507;0.0
2015-06-07;224.479996;228.379852;224.290192;227.659744;227.659744;0.0
2015-06-08;229.860229;229.860229;228.799973;229.00012200000003;229.00012200000003;0.0
2015-06-09;228.67596400000002;229.252625;227.25981099999998;227.799759;227.799759;0.0
2015-06-10;229.673859;229.990799;228.790039;229.03001400000002;229.03001400000002;0.0
2015-06-11;229.84014900000003;229.989746;229.09979199999998;229.34989900000002;229.34989900000002;0.0
2015-06-14;231.82008399999998;236.240204;231.40005499999998;235.99989300000001;235.99989300000001;0.0
2015-06-15;245.419861;250.559998;245.419861;249.600021;249.600021;0.0
2015-06-16;246.85992400000003;248.15989700000003;244.65011600000003;247.44024700000003;247.44024700000003;0.0
2015-06-17;247.03985600000001;248.450302;247.03985600000001;248.25970499999997;248.25970499999997;0.0
2015-06-18;245.799896;245.85003700000001;242.480087;243.850098;243.850098;0.0
2015-06-21;244.499985;248.570709;243.70983900000002;245.960114;245.960114;0.0
2015-06-22;244.85798599999998;244.977966;242.999786;243.86972000000003;243.86972000000003;0.0
2015-06-23;241.31274399999998;241.31274399999998;240.07009900000003;240.190033;240.190033;0.0
2015-06-24;241.60424799999998;243.131546;240.90000899999998;241.980179;241.980179;0.0
2015-06-25;242.189392;243.429825;242.189392;242.97972099999998;242.97972099999998;0.0
2015-06-28;250.25024399999998;256.410278;249.56326299999998;256.049805;256.049805;0.0
2015-06-29;263.209839;264.32018999999997;261.919983;262.419678;262.419678;0.0
2015-06-30;258.309814;258.560272;257.070068;257.550079;257.550079;0.0
2015-07-01;254.48982200000003;254.899796;254.419907;254.679733;254.679733;0.0
2015-07-02;255.81007400000001;256.410278;255.39978;255.819885;255.819885;0.0
2015-07-05;260.688202;274.689789;260.000275;268.529907;268.529907;0.0
2015-07-06;265.389954;266.98989900000004;264.630066;265.85986299999996;265.85986299999996;0.0
2015-07-07;266.660278;270.78988599999997;266.660278;270.639679;270.639679;0.0
2015-07-08;269.850189;269.850189;268.679962;269.010284;269.010284;0.0
2015-07-09;285.769806;288.520355;283.849792;284.919769;284.919769;0.0
2015-07-12;292.309631;293.340302;290.870148;292.680054;292.680054;0.0
2015-07-13;288.690277;290.310333;287.15002400000003;287.15002400000003;287.15002400000003;0.0
2015-07-14;290.86001600000003;291.169983;284.29040499999996;285.659607;285.659607;0.0
2015-07-15;280.320129;280.320129;276.34997599999997;277.889709;277.889709;0.0
2015-07-16;278.99993900000004;279.919952;278.409607;279.08013900000003;279.08013900000003;0.0
2015-07-19;276.789795;279.14013700000004;276.73004199999997;279.030304;279.030304;0.0
2015-07-20;278.98983799999996;278.98983799999996;276.27972400000004;276.759918;276.759918;0.0
2015-07-21;276.359894;277.970032;276.050171;277.67981000000003;277.67981000000003;0.0
2015-07-22;276.069977;277.250214;275.980072;276.60986299999996;276.60986299999996;0.0
2015-07-23;289.42971800000004;290.50006099999996;288.399689;288.999786;288.999786;0.0
2015-07-26;288.240082;297.440216;287.359619;294.280365;294.280365;0.0
2015-07-27;296.033142;296.471985;293.129639;294.010406;294.010406;0.0
2015-07-28;291.54519700000003;291.54519700000003;289.219635;290.04003900000004;290.04003900000004;0.0
2015-07-29;287.85263100000003;289.268158;286.728302;288.000183;288.000183;0.0
2015-07-30;284.900299;285.388123;283.79983500000003;284.309784;284.309784;0.0
2015-08-02;280.570221;283.790192;280.189758;280.419952;280.419952;0.0
2015-08-03;285.170013;285.349854;284.270203;285.00015299999995;285.00015299999995;0.0
2015-08-04;281.989594;281.989594;280.939911;280.999908;280.999908;0.0
2015-08-05;279.251617;279.407654;276.599915;277.079681;277.079681;0.0
2015-08-06;279.539673;279.539673;278.890228;279.320251;279.320251;0.0
2015-08-09;267.159668;267.210358;260.599915;264.490082;264.490082;0.0
2015-08-10;268.849731;271.500092;268.589783;270.999786;270.999786;0.0
2015-08-11;269.660248;270.409851;266.99987799999997;267.099731;267.099731;0.0
2015-08-12;264.989807;265.029846;264.480316;264.480316;264.480316;0.0
2015-08-13;266.449951;266.4599;265.569702;265.569702;265.569702;0.0
2015-08-16;262.429993;263.060272;256.200043;256.470093;256.470093;0.0
2015-08-17;251.952621;251.952621;221.769821;223.71014399999999;223.71014399999999;0.0
2015-08-18;225.68269300000003;228.62995899999999;223.319962;226.249969;226.249969;0.0
2015-08-19;236.686401;236.966827;234.09008799999998;235.530212;235.530212;0.0
2015-08-20;233.263367;234.02760299999997;231.964737;233.48992900000002;233.48992900000002;0.0
2015-08-23;230.680496;231.61981200000002;209.510086;210.59989900000002;210.59989900000002;0.0
2015-08-24;221.38000499999998;224.84997599999997;220.209991;222.129913;222.129913;0.0
2015-08-25;226.089874;227.500229;224.67013500000002;225.04022200000003;225.04022200000003;0.0
2015-08-26;227.01011699999998;227.14006;223.77021800000003;225.03010600000002;225.03010600000002;0.0
2015-08-27;234.411636;234.411636;231.520065;231.649857;231.649857;0.0
2015-08-30;228.72984300000002;230.469971;227.110123;230.24974100000003;230.24974100000003;0.0
2015-08-31;227.479523;228.41481000000002;227.06629900000001;227.970108;227.970108;0.0
2015-09-01;229.43988;229.779404;228.35012799999998;229.24002099999998;229.24002099999998;0.0
2015-09-02;227.221069;227.583069;226.520065;227.220062;227.220062;0.0
2015-09-03;231.427902;231.85717799999998;230.25981099999998;230.70979300000002;230.70979300000002;0.0
2015-09-06;235.74008199999997;242.07214399999998;235.300217;240.190033;240.190033;0.0
2015-09-07;244.081024;244.61839300000003;243.509842;244.20977799999997;244.20977799999997;0.0
2015-09-08;239.234436;239.234436;237.52011099999999;238.30006400000002;238.30006400000002;0.0
2015-09-09;239.177231;239.69319199999998;236.91069;238.66008;238.66008;0.0
2015-09-10;240.963852;241.370987;238.84019500000002;239.93992599999999;239.93992599999999;0.0
2015-09-13;236.79849199999998;236.85456800000003;229.36988799999997;229.84014900000003;229.84014900000003;0.0
2015-09-14;230.36164900000003;230.680496;229.14022799999998;229.700241;229.700241;0.0
2015-09-15;228.72825600000002;229.46304300000003;227.410202;228.140167;228.140167;0.0
2015-09-16;233.590302;233.808731;232.169937;232.169937;232.169937;0.0
2015-09-17;233.97285499999998;233.97285499999998;231.9599;232.51976000000002;232.51976000000002;0.0
2015-09-20;232.28804;233.15458700000002;225.000229;226.15020800000002;226.15020800000002;0.0
2015-09-21;230.41474900000003;231.26734900000002;229.00012200000003;229.700241;229.700241;0.0
2015-09-22;230.096634;230.46783399999998;228.530167;229.419876;229.419876;0.0
2015-09-23;234.79689;235.404892;232.00024399999998;233.86013799999998;233.86013799999998;0.0
2015-09-24;235.404892;235.904694;234.390198;235.21995499999997;235.21995499999997;0.0
2015-09-27;234.61015299999997;240.442429;233.80982999999998;239.14004500000001;239.14004500000001;0.0
2015-09-28;237.642593;237.812119;236.54028300000002;236.939865;236.939865;0.0
2015-09-29;236.83999599999999;236.889923;235.42983999999998;236.169891;236.169891;0.0
2015-09-30;238.019882;238.26997400000002;236.999954;238.000046;238.000046;0.0
2015-10-01;238.038559;238.20867900000002;237.259735;237.76972999999998;237.76972999999998;0.0
2015-10-04;239.65988199999998;241.31274399999998;238.309708;240.840256;240.840256;0.0
2015-10-05;246.062973;248.01586899999998;245.200195;246.800232;246.800232;0.0
2015-10-06;244.200226;244.37927200000001;242.320267;243.009827;243.009827;0.0
2015-10-07;243.724121;243.902435;242.189392;242.92010499999998;242.92010499999998;0.0
2015-10-08;244.678238;244.798035;244.010162;244.48023999999998;244.48023999999998;0.0
2015-10-11;245.76004;247.157684;245.030167;245.369858;245.369858;0.0
2015-10-12;250.43827799999997;250.75224300000002;248.610275;249.68974300000002;249.68974300000002;0.0
2015-10-13;254.258835;254.64732400000003;252.27998399999998;252.46977200000003;252.46977200000003;0.0
2015-10-14;254.430283;254.57016000000002;253.61013799999998;254.48982200000003;254.48982200000003;0.0
2015-10-15;261.50012200000003;263.27014199999996;259.74969500000003;263.090027;263.090027;0.0
2015-10-18;268.100128;273.44818100000003;263.290253;263.660248;263.660248;0.0
2015-10-19;268.369934;271.049713;267.889679;270.639679;270.639679;0.0
2015-10-20;268.359833;268.359833;267.26034500000003;267.889679;267.889679;0.0
2015-10-21;274.259644;275.950378;273.710144;274.349915;274.349915;0.0
2015-10-22;277.109619;278.99993900000004;276.259888;278.270172;278.270172;0.0
2015-10-26;279.989716;286.899597;279.289825;286.899597;286.899597;0.0
2015-10-27;295.180298;296.320007;294.700104;295.539703;295.539703;0.0
2015-10-28;303.83963;306.00036600000004;303.83963;305.649628;305.649628;0.0
2015-10-29;315.61969;315.84997599999997;312.999817;314.81982400000004;314.81982400000004;0.0
2015-10-30;328.623077;329.924103;326.119568;327.979614;327.979614;0.0
2015-11-02;310.800323;370.644928;309.050232;361.000397;361.000397;0.0
2015-11-03;400.0;404.499664;397.440491;404.270721;404.270721;0.0
2015-11-04;382.994995;413.850769;379.99984700000005;408.00006099999996;408.00006099999996;0.0
2015-11-05;390.93042;391.083313;377.499542;384.179504;384.179504;0.0
2015-11-06;375.65741;376.020416;369.010498;374.470154;374.470154;0.0
2015-11-09;386.697632;387.62994399999997;377.720551;377.900391;377.900391;0.0
2015-11-10;332.990356;339.990326;329.619598;336.729828;336.729828;0.0
2015-11-11;304.90036000000003;309.910309;300.00030499999997;309.910309;309.910309;0.0
2015-11-12;332.809723;341.00015299999995;332.080292;337.170319;337.170319;0.0
2015-11-13;339.499786;339.499786;333.51010099999996;336.98965499999997;336.98965499999997;0.0
2015-11-16;338.259521;338.524048;326.41015600000003;330.290253;330.290253;0.0
2015-11-17;337.60974100000004;337.60974100000004;334.489563;336.080231;336.080231;0.0
2015-11-18;337.154419;337.154419;334.189972;334.479462;334.479462;0.0
2015-11-19;327.01110800000004;327.800079;324.940125;326.00048799999996;326.00048799999996;0.0
2015-11-20;321.95752000000005;322.120331;320.740021;322.120331;322.120331;0.0
2015-11-23;325.097534;326.540192;320.46044900000004;324.030426;324.030426;0.0
2015-11-24;320.410126;321.027283;317.90033;319.700256;319.700256;0.0
2015-11-25;327.976379;328.947357;327.77966299999997;328.89977999999996;328.89977999999996;0.0
2015-11-26;350.75412;357.940552;350.75412;353.010132;353.010132;0.0
2015-11-27;358.551453;360.26947;357.39941400000004;358.02002000000005;358.02002000000005;0.0
2015-11-30;355.209503;378.87973;355.209503;376.710266;376.710266;0.0
2015-12-01;362.899994;363.17019700000003;361.650574;363.059418;363.059418;0.0
2015-12-02;359.919373;361.10992400000003;358.059723;358.88989300000003;358.88989300000003;0.0
2015-12-03;361.450592;361.500244;361.049927;361.420532;361.420532;0.0
2015-12-04;362.97641;364.033508;361.909729;363.620514;363.620514;0.0
2015-12-07;389.408112;397.069641;381.629852;395.01025400000003;395.01025400000003;0.0
2015-12-08;395.539917;418.21932999999996;395.139801;416.939423;416.939423;0.0
2015-12-09;417.18814100000003;417.710938;415.51016200000004;416.97937;416.97937;0.0
2015-12-10;415.454926;417.299561;415.149658;415.439392;415.439392;0.0
2015-12-11;448.189331;454.00064100000003;448.189331;452.990875;452.990875;0.0
2015-12-14;434.89038099999993;444.6203;431.220367;443.69903600000004;443.69903600000004;0.0
2015-12-15;461.81057699999997;464.319397;460.92935199999994;464.319397;464.319397;0.0
2015-12-16;454.060455;455.97970599999996;453.220795;455.89032000000003;455.89032000000003;0.0
2015-12-17;454.85971100000006;456.589722;454.85971100000006;455.86956799999996;455.86956799999996;0.0
2015-12-18;463.280396;464.190063;462.019684;462.99081399999994;462.99081399999994;0.0
2015-12-21;461.339722;461.799896;434.880951;438.010559;438.010559;0.0
2015-12-22;435.219727;436.559204;434.569122;435.179962;435.179962;0.0
2015-12-23;442.699219;444.000458;442.090576;442.49939000000006;442.49939000000006;0.0
2015-12-24;455.120575;456.00051900000005;454.67981;455.780212;455.780212;0.0
2015-12-25;456.22934000000004;456.22934000000004;454.890778;455.510284;455.510284;0.0
2015-12-28;416.89074700000003;421.94094800000005;415.410065;421.460785;421.460785;0.0
2015-12-29;430.663239;433.83947800000004;428.540833;431.81997699999994;431.81997699999994;0.0
2015-12-30;427.99060099999997;428.70062300000006;425.600739;425.839966;425.839966;0.0
2015-12-31;430.84878499999996;432.299713;429.18454;430.889618;430.889618;0.0
2016-01-01;434.593658;435.9198;433.380737;433.820679;433.820679;0.0
2016-01-04;435.9198;435.9198;432.64010599999995;434.169128;434.169128;0.0
2016-01-05;433.27554299999997;433.27554299999997;431.129242;432.430542;432.430542;0.0
2016-01-06;432.52597000000003;432.52597000000003;429.11087000000003;430.29260300000004;430.29260300000004;0.0
2016-01-07;454.79974400000003;460.193268;454.79974400000003;457.19091799999995;457.19091799999995;0.0
2016-01-08;454.959045;454.959045;450.799713;452.69967699999995;452.69967699999995;0.0
2016-01-11;450.88915999999995;451.46725499999997;447.239197;447.980499;447.980499;0.0
2016-01-12;446.480408;446.96932999999996;435.000092;435.000092;435.000092;0.0
2016-01-13;432.97912599999995;433.039154;430.999207;432.64010599999995;432.64010599999995;0.0
2016-01-14;429.819122;431.03448499999996;428.300354;429.54956100000004;429.54956100000004;0.0
2016-01-15;366.43457;378.720459;361.000397;361.000397;361.000397;0.0
2016-01-18;383.04931600000003;391.789642;382.029358;385.46936;385.46936;0.0
2016-01-19;380.18045;380.47985800000004;376.81958;376.81958;376.81958;0.0
2016-01-20;415.999329;422.97961399999997;414.47000099999997;418.039246;418.039246;0.0
2016-01-21;410.509033;412.13998399999997;407.996735;410.259766;410.259766;0.0
2016-01-22;378.071838;384.35965;376.999969;382.630127;382.630127;0.0
2016-01-25;391.542694;393.391022;384.160309;390.899872;390.899872;0.0
2016-01-26;394.321777;395.269409;387.64047200000005;391.769714;391.769714;0.0
2016-01-27;394.321777;397.14056400000004;387.64047200000005;395.72616600000003;395.72616600000003;0.0
2016-01-28;;;;;;
2016-01-29;;;;;;
2016-02-01;;;;;;
2016-02-02;;;;;;
2016-02-03;;;;;;
2016-02-04;;;;;;
2016-02-05;;;;;;
2016-02-08;;;;;;
2016-02-09;;;;;;
2016-02-10;;;;;;
2016-02-11;;;;;;
2016-02-12;;;;;;
2016-02-15;;;;;;
2016-02-16;;;;;;
2016-02-17;;;;;;
2016-02-18;;;;;;
2016-02-19;;;;;;
2016-02-22;;;;;;
2016-02-23;;;;;;
2016-02-24;;;;;;
2016-02-25;;;;;;
2016-02-26;;;;;;
2016-02-29;;;;;;
2016-03-01;;;;;;
2016-03-02;;;;;;
2016-03-03;;;;;;
2016-03-04;;;;;;
2016-03-07;;;;;;
2016-03-08;;;;;;
2016-03-09;;;;;;
2016-03-10;;;;;;
2016-03-11;;;;;;
2016-03-14;;;;;;
2016-03-15;;;;;;
2016-03-16;;;;;;
2016-03-17;;;;;;
2016-03-18;;;;;;
2016-03-21;;;;;;
2016-03-22;;;;;;
2016-03-23;;;;;;
2016-03-24;;;;;;
2016-03-25;;;;;;
2016-03-27;;;;;;
2016-03-28;;;;;;
2016-03-29;;;;;;
2016-03-30;;;;;;
2016-03-31;;;;;;
2016-04-03;;;;;;
2016-04-04;;;;;;
2016-04-05;;;;;;
2016-04-06;;;;;;
2016-04-07;;;;;;
2016-04-10;;;;;;
2016-04-11;;;;;;
2016-04-12;;;;;;
2016-04-13;;;;;;
2016-04-14;;;;;;
2016-04-17;;;;;;
2016-04-18;;;;;;
2016-04-19;;;;;;
2016-04-20;;;;;;
2016-04-21;;;;;;
2016-04-24;;;;;;
2016-04-25;;;;;;
2016-04-26;;;;;;
2016-04-27;;;;;;
2016-04-28;;;;;;
2016-05-01;;;;;;
2016-05-02;;;;;;
2016-05-03;;;;;;
2016-05-04;;;;;;
2016-05-05;;;;;;
2016-05-08;;;;;;
2016-05-09;;;;;;
2016-05-10;;;;;;
2016-05-11;;;;;;
2016-05-12;;;;;;
2016-05-15;;;;;;
2016-05-16;;;;;;
2016-05-17;;;;;;
2016-05-18;;;;;;
2016-05-19;;;;;;
2016-05-22;;;;;;
2016-05-23;;;;;;
2016-05-24;;;;;;
2016-05-25;;;;;;
2016-05-26;;;;;;
2016-05-29;;;;;;
2016-05-30;;;;;;
2016-05-31;;;;;;
2016-06-01;;;;;;
2016-06-02;;;;;;
2016-06-05;;;;;;
2016-06-06;;;;;;
2016-06-07;;;;;;
2016-06-08;;;;;;
2016-06-09;;;;;;
2016-06-12;;;;;;
2016-06-13;;;;;;
2016-06-14;;;;;;
2016-06-15;;;;;;
2016-06-16;;;;;;
2016-06-19;;;;;;
2016-06-20;;;;;;
2016-06-21;;;;;;
2016-06-22;;;;;;
2016-06-23;;;;;;
2016-06-26;;;;;;
2016-06-27;;;;;;
2016-06-28;;;;;;
2016-06-29;;;;;;
2016-06-30;;;;;;
2016-07-03;;;;;;
2016-07-04;;;;;;
2016-07-05;;;;;;
2016-07-06;;;;;;
2016-07-07;;;;;;
2016-07-10;;;;;;
2016-07-11;;;;;;
2016-07-12;;;;;;
2016-07-13;;;;;;
2016-07-14;;;;;;
2016-07-17;;;;;;
2016-07-18;;;;;;
2016-07-19;;;;;;
2016-07-20;;;;;;
2016-07-21;;;;;;
2016-07-24;;;;;;
2016-07-25;;;;;;
2016-07-26;;;;;;
2016-07-27;;;;;;
2016-07-28;;;;;;
2016-07-31;;;;;;
2016-08-01;;;;;;
2016-08-02;;;;;;
2016-08-03;;;;;;
2016-08-04;;;;;;
2016-08-07;;;;;;
2016-08-08;;;;;;
2016-08-09;;;;;;
2016-08-10;;;;;;
2016-08-11;;;;;;
2016-08-14;;;;;;
2016-08-15;;;;;;
2016-08-16;;;;;;
2016-08-17;;;;;;
2016-08-18;;;;;;
2016-08-21;;;;;;
2016-08-22;;;;;;
2016-08-23;;;;;;
2016-08-24;;;;;;
2016-08-25;;;;;;
2016-08-28;;;;;;
2016-08-29;;;;;;
2016-08-30;;;;;;
2016-08-31;;;;;;
2016-09-01;;;;;;
2016-09-04;;;;;;
2016-09-05;;;;;;
2016-09-06;;;;;;
2016-09-07;;;;;;
2016-09-08;;;;;;
2016-09-11;;;;;;
2016-09-12;;;;;;
2016-09-13;;;;;;
2016-09-14;;;;;;
2016-09-15;;;;;;
2016-09-18;;;;;;
2016-09-19;;;;;;
2016-09-20;;;;;;
2016-09-21;;;;;;
2016-09-22;;;;;;
2016-09-25;;;;;;
2016-09-26;;;;;;
2016-09-27;;;;;;
2016-09-28;;;;;;
2016-09-29;;;;;;
2016-10-02;;;;;;
2016-10-03;;;;;;
2016-10-04;;;;;;
2016-10-05;;;;;;
2016-10-06;;;;;;
2016-10-09;;;;;;
2016-10-10;;;;;;
2016-10-11;;;;;;
2016-10-12;;;;;;
2016-10-13;;;;;;
2016-10-16;;;;;;
2016-10-17;;;;;;
2016-10-18;;;;;;
2016-10-19;;;;;;
2016-10-20;;;;;;
2016-10-23;;;;;;
2016-10-24;;;;;;
2016-10-25;;;;;;
2016-10-26;;;;;;
2016-10-27;;;;;;
2016-10-31;;;;;;
2016-11-01;;;;;;
2016-11-02;;;;;;
2016-11-03;;;;;;
2016-11-04;;;;;;
2016-11-07;;;;;;
2016-11-08;;;;;;
2016-11-09;;;;;;
2016-11-10;;;;;;
2016-11-11;;;;;;
2016-11-14;;;;;;
2016-11-15;;;;;;
2016-11-16;;;;;;
2016-11-17;;;;;;
2016-11-18;;;;;;
2016-11-21;;;;;;
2016-11-22;;;;;;
2016-11-23;;;;;;
2016-11-24;;;;;;
2016-11-25;;;;;;
2016-11-28;;;;;;
2016-11-29;;;;;;
2016-11-30;;;;;;
2016-12-01;;;;;;
2016-12-02;;;;;;
2016-12-05;;;;;;
2016-12-06;;;;;;
2016-12-07;;;;;;
2016-12-08;;;;;;
2016-12-09;;;;;;
2016-12-12;777.677551;779.423218;776.8378299999999;777.9921879999999;777.9921879999999;0.0
2016-12-13;777.0007929999999;790.207764;770.0007929999999;777.248352;777.248352;0.0
2016-12-14;776.397522;781.86084;771.051636;777.09137;777.09137;0.0
2016-12-15;777.09137;779.071045;773.1201169999999;774.371399;774.371399;0.0
2016-12-16;775.795166;784.929321;772.48114;781.3172;781.3172;0.0
2016-12-19;781.25;794.230713;780.0311889999999;791.032837;791.032837;0.0
2016-12-20;791.001587;802.162659;787.798584;801.590393;801.590393;0.0
2016-12-21;798.830505;829.999512;797.3718259999999;829.999512;829.999512;0.0
2016-12-22;832.750427;873.980713;828.603333;860.178101;860.178101;0.0
2016-12-23;858.9367679999999;918.6279300000001;858.9367679999999;913.542358;913.542358;0.0
2016-12-26;914.4613039999999;918.5014039999999;878.889038;897.263367;897.263367;0.0
2016-12-27;900.90094;937.207153;893.623169;930.336426;930.336426;0.0
2016-12-28;923.361023;983.2842410000001;923.361023;975.1436160000001;975.1436160000001;0.0
2016-12-29;983.2842410000001;988.142273;950.0014039999999;970.346191;970.346191;0.0
2016-12-30;970.8737179999999;970.8737179999999;931.0032960000001;959.886353;959.886353;0.0
2017-01-02;961.538452;966.361023;944.1087039999999;964.8411869999999;964.8411869999999;0.0
